…
in general, I want to split the character column into alias and real
name.

To clean up characters I’d start with this:

``` r
characters %>%
  separate(character,  c("alias","secret_id"), sep = "=")
```

    ## Warning: Expected 2 pieces. Missing pieces filled with `NA` in 366 rows [1, 19,
    ## 24, 42, 47, 65, 70, 88, 93, 111, 116, 134, 139, 157, 162, 180, 185, 203, 208,
    ## 226, ...].

    ## # A tibble: 4,209 x 35
    ##    issue alias secret_id rendered_unconc~ captured declared_dead redressed
    ##    <dbl> <chr> <chr>                <dbl>    <dbl>         <dbl>     <dbl>
    ##  1    97 "Pro~  <NA>                    0        0             0         0
    ##  2    97 "Wol~ " Logan"                 0        0             0         0
    ##  3    97 "Cyc~ " Scott ~                0        0             0         0
    ##  4    97 "Mar~ " Jean G~                1        0             0         0
    ##  5    97 "Sto~ " Ororo ~                0        0             0         0
    ##  6    97 "Col~ " Peter ~                0        0             0         0
    ##  7    97 "Nig~ " Kurt W~                0        0             0         0
    ##  8    97 "Ban~ " Sean C~                0        0             0         0
    ##  9    97 "Ang~ " Warren~                0        0             0         0
    ## 10    97 "Ari~ " Kitty ~                0        0             0         0
    ## # ... with 4,199 more rows, and 28 more variables: depowered <dbl>,
    ## #   clothing_torn <dbl>, subject_to_torture <dbl>, quits_team <dbl>,
    ## #   surrenders <dbl>, number_of_kills_humans <dbl>,
    ## #   number_of_kills_non_humans <dbl>, initiates_physical_conflict <chr>,
    ## #   expresses_reluctance_to_fight <dbl>, on_a_date_with_which_character <chr>,
    ## #   kiss_with_which_character <chr>, hand_holding_with_which_character <chr>,
    ## #   dancing_with_which_character <chr>, flying_with_another_character <chr>,
    ## #   arm_in_arm_with_which_character <chr>, hugging_with_which_character <chr>,
    ## #   physical_contact_other <chr>, carrying_with_which_character <chr>,
…
