…
gdpr_violations <- readr::read_tsv('https://raw.githubusercontent.com/rfordatascience/tidytuesday/master/data/2020/2020-04-21/gdpr_violations.tsv')
gdpr_text <- readr::read_tsv('https://raw.githubusercontent.com/rfordatascience/tidytuesday/master/data/2020/2020-04-21/gdpr_text.tsv')
```

## Examining The Data

Now looking at the data frame `gdpr_text`, I’m not likely to make use of
that today, at least for general analysis. Instead I want to gocus on
the violations recorded.

    ## # A tibble: 250 x 11
    ##       id picture name   price authority date  controller article_violated type 
    ##    <dbl> <chr>   <chr>  <dbl> <chr>     <chr> <chr>      <chr>            <chr>
    ##  1     1 https:~ Pola~   9380 Polish N~ 10/1~ Polish Ma~ Art. 28 GDPR     Non-~
    ##  2     2 https:~ Roma~   2500 Romanian~ 10/1~ UTTIS IND~ Art. 12 GDPR|Ar~ Info~
    ##  3     3 https:~ Spain  60000 Spanish ~ 10/1~ Xfera Mov~ Art. 5 GDPR|Art~ Non-~
    ##  4     4 https:~ Spain   8000 Spanish ~ 10/1~ Iberdrola~ Art. 31 GDPR     Fail~
    ##  5     5 https:~ Roma~ 150000 Romanian~ 10/0~ Raiffeise~ Art. 32 GDPR     Fail~
    ##  6     6 https:~ Roma~  20000 Romanian~ 10/0~ Vreau Cre~ Art. 32 GDPR|Ar~ Fail~
    ##  7     7 https:~ Gree~ 200000 Hellenic~ 10/0~ Telecommu~ Art. 5 (1) c) G~ Fail~
    ##  8     8 https:~ Gree~ 200000 Hellenic~ 10/0~ Telecommu~ Art. 21 (3) GDP~ Fail~
    ##  9     9 https:~ Spain  30000 Spanish ~ 10/0~ Vueling A~ Art. 5 GDPR|Art~ Non-~
    ## 10    10 https:~ Roma~   9000 Romanian~ 09/2~ Inteligo ~ Art. 5 (1) a) G~ Non-~
    ## # ... with 240 more rows, and 2 more variables: source <chr>, summary <chr>
…
## Cleaning The Articles

The articles violated seemed like an interesting place to investigate as
well as being easier to clean.

``` r
gdpr_text %>% group_by(
  article
) %>%
  count()
```

    ## # A tibble: 99 x 2
    ## # Groups:   article [99]
    ##    article     n
    ##      <dbl> <int>
    ##  1       1     3
    ##  2       2     4
    ##  3       3     4
    ##  4       4     6
    ##  5       5     2
    ##  6       6     7
    ##  7       7     4
    ##  8       8     3
    ##  9       9     4
    ## 10      10     1
    ## # ... with 89 more rows
…
