…
``` r
# This is likely the worst way to approach this

locations %>%
  group_by(animal_id, study_site) %>%
  count() %>%
  arrange(animal_id) %>%
  ungroup %>%
  select(animal_id) %>%
  group_by(animal_id) %>% 
  count() %>% 
  arrange(n)
```

    ## # A tibble: 260 x 2
    ## # Groups:   animal_id [260]
    ##    animal_id     n
    ##    <chr>     <int>
    ##  1 BP_car022     1
    ##  2 BP_car023     1
    ##  3 BP_car032     1
    ##  4 BP_car043     1
    ##  5 BP_car100     1
    ##  6 BP_car101     1
    ##  7 BP_car115     1
    ##  8 BP_car144     1
    ##  9 BP_car145     1
    ## 10 GR_C01        1
    ## # ... with 250 more rows
…
