…
polls <- readr::read_csv('https://raw.githubusercontent.com/rfordatascience/tidytuesday/master/data/2020/2020-04-14/polls.csv')
rankings <- readr::read_csv('https://raw.githubusercontent.com/rfordatascience/tidytuesday/master/data/2020/2020-04-14/rankings.csv')
```

let’s take a look at the data

``` r
polls
```

    ## # A tibble: 535 x 9
    ##     rank title artist gender  year critic_name critic_rols critic_country
    ##    <dbl> <chr> <chr>  <chr>  <dbl> <chr>       <chr>       <chr>         
    ##  1     1 Term~ Publi~ male    1998 Joseph Aba~ Fat Beats   US            
    ##  2     2 4th ~ Gza f~ male    1995 Joseph Aba~ Fat Beats   US            
    ##  3     3 Pete~ Run D~ male    1986 Joseph Aba~ Fat Beats   US            
    ##  4     4 Play~ GLOBE~ male    2001 Joseph Aba~ Fat Beats   US            
    ##  5     5 Time~ O.C.   male    1994 Joseph Aba~ Fat Beats   US            
    ##  6     1 Play~ Slum ~ male    1997 Biba Adams  Critic      US            
    ##  7     2 Self~ Stop ~ mixed   1989 Biba Adams  Critic      US            
    ##  8     3 Push~ Salt-~ female  1986 Biba Adams  Critic      US            
    ##  9     4 Ambi~ 2Pac   male    1996 Biba Adams  Critic      US            
    ## 10     5 Big ~ JAY-Z~ male    1999 Biba Adams  Critic      US            
    ## # ... with 525 more rows, and 1 more variable: critic_country2 <chr>

``` r
rankings
```

    ## # A tibble: 311 x 12
    ##       ID title   artist   year gender points     n    n1    n2    n3    n4    n5
    ##    <dbl> <chr>   <chr>   <dbl> <chr>   <dbl> <dbl> <dbl> <dbl> <dbl> <dbl> <dbl>
    ##  1     1 Juicy   The No~  1994 male      140    18     9     3     3     1     2
    ##  2     2 Fight ~ Public~  1989 male      100    11     7     3     1     0     0
    ##  3     3 Shook ~ Mobb D~  1995 male       94    13     4     5     1     1     2
    ##  4     4 The Me~ Grandm~  1982 male       90    14     5     3     1     0     5
    ##  5     5 Nuthin~ Dr Dre~  1992 male       84    14     2     4     2     4     2
    ##  6     6 C.R.E.~ Wu-Tan~  1993 male       62    10     3     1     1     4     1
    ##  7     7 93 ’Ti~ Souls ~  1993 male       50     7     2     2     2     0     1
    ##  8     8 Passin~ The Ph~  1992 male       48     6     3     2     0     0     1
    ##  9     9 N.Y. S~ Nas      1994 male       46     7     1     3     1     1     1
    ## 10    10 Dear M~ 2Pac     1995 male       42     6     2     1     1     2     0
    ## # ... with 301 more rows

I see that the way this poll was calculated, used a multi choise method,
which means there could be an interesting exploration of different
counting methods. I want to take a look to see if this is a viable
option.

``` r
polls %>%
  arrange(critic_name)
```

    ## # A tibble: 535 x 9
    ##     rank title artist gender  year critic_name critic_rols critic_country
    ##    <dbl> <chr> <chr>  <chr>  <dbl> <chr>       <chr>       <chr>         
    ##  1     1 Dear~ 2Pac   male    1995 Al Rocco    Artist      China         
    ##  2     2 Chan~ 2Pac ~ male    1998 Al Rocco    Artist      China         
    ##  3     3 Wu-T~ Wu-Ta~ male    1993 Al Rocco    Artist      China         
    ##  4     4 Shoo~ Mobb ~ male    1995 Al Rocco    Artist      China         
    ##  5     5 Juicy The N~ male    1994 Al Rocco    Artist      China         
    ##  6     1 Paid~ Eric ~ male    1987 Alejandro ~ Radio Pers~ Colombia      
    ##  7     2 N.Y.~ Nas    male    1994 Alejandro ~ Radio Pers~ Colombia      
    ##  8     3 Nuth~ Dr Dr~ male    1992 Alejandro ~ Radio Pers~ Colombia      
    ##  9     4 Ms J~ OutKa~ male    2000 Alejandro ~ Radio Pers~ Colombia      
    ## 10     5 All ~ Kanye~ mixed   2004 Alejandro ~ Radio Pers~ Colombia      
    ## # ... with 525 more rows, and 1 more variable: critic_country2 <chr>
…
